%!PS-Adobe-3.0 EPSF-3.0 
%%BoundingBox: 0 0 340 142
%%Pages: 0
%%Creator: LibreOffice 4.2
%%Title: none
%%CreationDate: none
%%LanguageLevel: 2
%%EndComments
%%BeginProlog
%%BeginResource: procset SDRes-Prolog 1.0 0
/b4_inc_state save def
/dict_count countdictstack def
/op_count count 1 sub def
userdict begin
0 setgray 0 setlinecap 1 setlinewidth 0 setlinejoin 10 setmiterlimit[] 0 setdash newpath
/languagelevel where {pop languagelevel 1 ne {false setstrokeadjust false setoverprint} if} if
/bdef {bind def} bind def
/c {setrgbcolor} bdef
/l {neg lineto} bdef
/rl {neg rlineto} bdef
/lc {setlinecap} bdef
/lj {setlinejoin} bdef
/lw {setlinewidth} bdef
/ml {setmiterlimit} bdef
/ld {setdash} bdef
/m {neg moveto} bdef
/ct {6 2 roll neg 6 2 roll neg 6 2 roll neg curveto} bdef
/r {rotate} bdef
/t {neg translate} bdef
/s {scale} bdef
/sw {show} bdef
/gs {gsave} bdef
/gr {grestore} bdef
/f {findfont dup length dict begin
{1 index /FID ne {def} {pop pop} ifelse} forall /Encoding ISOLatin1Encoding def
currentdict end /NFont exch definefont pop /NFont findfont} bdef
/p {closepath} bdef
/sf {scalefont setfont} bdef
/ef {eofill}bdef
/pc {closepath stroke}bdef
/ps {stroke}bdef
/pum {matrix currentmatrix}bdef
/pom {setmatrix}bdef
/bs {/aString exch def /nXOfs exch def /nWidth exch def currentpoint nXOfs 0 rmoveto pum nWidth aString stringwidth pop div 1 scale aString show pom moveto} bdef
%%EndResource
%%EndProlog
%%BeginSetup
%%EndSetup
%%Page: 1 1
%%BeginPageSetup
%%EndPageSetup
pum
0.02833 0.0284 s 
0 -5000 t
/tm matrix currentmatrix def
gs
tm setmatrix
-545 -625 t 
1 1 s 
545 625 m 12544 625 l 12544 5624 l 545 5624 l 545 625 l eoclip newpath
gs
0 0 m 11999 0 l 11999 4999 l 0 4999 l 0 0 l eoclip newpath
0 lw 1 lj 0.207 0.398 0.644 c 2836 2625 m  3021 2625 3163 2787 3163 3000 ct 
3163 3212 3021 3375 2836 3375 ct 2650 3375 2509 3212 2509 3000 ct 2509 2787 2650 2625 2836 2625 ct 
pc
2509 2625 m  2509 2625 l  pc
3164 3376 m  3164 3376 l  pc
pum
2319 2516 t
0.003 0.003 0.003 c 29 -385 m  29 0 l  68 0 l  68 -36 l  89 -3 117 12 156 12 ct 
229 12 277 -48 277 -140 ct 277 -230 231 -285 158 -285 ct 120 -285 93 -271 72 -240 ct 
72 -385 l  29 -385 l  p
150 -244 m  199 -244 231 -201 231 -135 ct 231 -72 198 -29 150 -29 ct 103 -29 72 -72 72 -137 ct 
72 -202 103 -244 150 -244 ct p ef
404 -375 m  370 -375 338 -360 318 -334 ct 294 -301 282 -251 282 -182 ct 282 -55 324 12 404 12 ct 
484 12 527 -55 527 -178 ct 527 -251 516 -300 491 -334 ct 471 -360 440 -375 404 -375 ct 
p
404 -334 m  455 -334 480 -283 480 -183 ct 480 -76 455 -27 403 -27 ct 354 -27 329 -78 329 -181 ct 
329 -284 354 -334 404 -334 ct p ef
546 -385 m  546 0 l  585 0 l  585 -36 l  606 -3 634 12 673 12 ct 746 12 794 -48 794 -140 ct 
794 -230 748 -285 675 -285 ct 637 -285 610 -271 589 -240 ct 589 -385 l  546 -385 l 
p
667 -244 m  716 -244 748 -201 748 -135 ct 748 -72 715 -29 667 -29 ct 620 -29 589 -72 589 -137 ct 
589 -202 620 -244 667 -244 ct p ef
921 -375 m  887 -375 855 -360 835 -334 ct 811 -301 799 -251 799 -182 ct 799 -55 841 12 921 12 ct 
1001 12 1044 -55 1044 -178 ct 1044 -251 1033 -300 1008 -334 ct 988 -360 957 -375 921 -375 ct 
p
921 -334 m  972 -334 997 -283 997 -183 ct 997 -76 972 -27 920 -27 ct 871 -27 846 -78 846 -181 ct 
846 -284 871 -334 921 -334 ct p ef
pom
0.207 0.398 0.644 c 4800 2625 m  4985 2625 5127 2787 5127 3000 ct 5127 3212 4985 3375 4800 3375 ct 
4614 3375 4472 3212 4472 3000 ct 4472 2787 4614 2625 4800 2625 ct pc
4472 2625 m  4472 2625 l  pc
5128 3376 m  5128 3376 l  pc
pum
4283 2516 t
0.003 0.003 0.003 c 29 -385 m  29 0 l  68 0 l  68 -36 l  89 -3 117 12 156 12 ct 
229 12 277 -48 277 -140 ct 277 -230 231 -285 158 -285 ct 120 -285 93 -271 72 -240 ct 
72 -385 l  29 -385 l  p
150 -244 m  199 -244 231 -201 231 -135 ct 231 -72 198 -29 150 -29 ct 103 -29 72 -72 72 -137 ct 
72 -202 103 -244 150 -244 ct p ef
542 -26 m  537 -25 535 -25 533 -25 ct 517 -25 509 -33 509 -47 ct 509 -209 l 
509 -259 473 -285 404 -285 ct 364 -285 331 -273 312 -253 ct 300 -238 294 -223 293 -195 ct 
338 -195 l  342 -229 362 -244 403 -244 ct 443 -244 465 -230 465 -203 ct 465 -191 l 
465 -173 454 -165 419 -161 ct 356 -153 347 -151 330 -144 ct 298 -131 281 -106 281 -70 ct 
281 -20 316 12 372 12 ct 407 12 435 0 466 -29 ct 470 -1 483 12 512 12 ct 521 12 528 11 542 7 ct 
542 -26 l  p
465 -87 m  465 -73 461 -64 447 -51 ct 429 -35 408 -27 382 -27 ct 347 -27 327 -43 327 -71 ct 
327 -100 347 -115 394 -122 ct 440 -128 450 -130 465 -137 ct 465 -87 l  p ef
546 -385 m  546 0 l  585 0 l  585 -36 l  606 -3 634 12 673 12 ct 746 12 794 -48 794 -140 ct 
794 -230 748 -285 675 -285 ct 637 -285 610 -271 589 -240 ct 589 -385 l  546 -385 l 
p
667 -244 m  716 -244 748 -201 748 -135 ct 748 -72 715 -29 667 -29 ct 620 -29 589 -72 589 -137 ct 
589 -202 620 -244 667 -244 ct p ef
1059 -26 m  1054 -25 1052 -25 1050 -25 ct 1034 -25 1026 -33 1026 -47 ct 1026 -209 l 
1026 -259 990 -285 921 -285 ct 881 -285 848 -273 829 -253 ct 817 -238 811 -223 810 -195 ct 
855 -195 l  859 -229 879 -244 920 -244 ct 960 -244 982 -230 982 -203 ct 982 -191 l 
982 -173 971 -165 936 -161 ct 873 -153 864 -151 847 -144 ct 815 -131 798 -106 798 -70 ct 
798 -20 833 12 889 12 ct 924 12 952 0 983 -29 ct 987 -1 1000 12 1029 12 ct 1038 12 1045 11 1059 7 ct 
1059 -26 l  p
982 -87 m  982 -73 978 -64 964 -51 ct 946 -35 925 -27 899 -27 ct 864 -27 844 -43 844 -71 ct 
844 -100 864 -115 911 -122 ct 957 -128 967 -130 982 -137 ct 982 -87 l  p ef
pom
0.207 0.398 0.644 c 6763 2625 m  6949 2625 7090 2787 7090 3000 ct 7090 3212 6949 3375 6763 3375 ct 
6578 3375 6436 3212 6436 3000 ct 6436 2787 6578 2625 6763 2625 ct pc
6436 2625 m  6436 2625 l  pc
7091 3376 m  7091 3376 l  pc
pum
6375 2516 t
0.003 0.003 0.003 c 136 -277 m  90 -277 l  90 -320 l  90 -338 101 -348 121 -348 ct 
125 -348 126 -348 136 -348 ct 136 -384 l  126 -386 121 -387 112 -387 ct 71 -387 47 -364 47 -324 ct 
47 -277 l  10 -277 l  10 -241 l  47 -241 l  47 0 l  90 0 l  90 -241 l 
136 -241 l  136 -277 l  p ef
275 -375 m  241 -375 209 -360 189 -334 ct 165 -301 153 -251 153 -182 ct 153 -55 195 12 275 12 ct 
355 12 398 -55 398 -178 ct 398 -251 387 -300 362 -334 ct 342 -360 311 -375 275 -375 ct 
p
275 -334 m  326 -334 351 -283 351 -183 ct 351 -76 326 -27 274 -27 ct 225 -27 200 -78 200 -181 ct 
200 -284 225 -334 275 -334 ct p ef
524 -277 m  478 -277 l  478 -320 l  478 -338 489 -348 509 -348 ct 513 -348 514 -348 524 -348 ct 
524 -384 l  514 -386 509 -387 500 -387 ct 459 -387 435 -364 435 -324 ct 435 -277 l 
398 -277 l  398 -241 l  435 -241 l  435 0 l  478 0 l  478 -241 l  524 -241 l 
524 -277 l  p ef
662 -375 m  628 -375 596 -360 576 -334 ct 552 -301 540 -251 540 -182 ct 540 -55 582 12 662 12 ct 
742 12 785 -55 785 -178 ct 785 -251 774 -300 749 -334 ct 729 -360 698 -375 662 -375 ct 
p
662 -334 m  713 -334 738 -283 738 -183 ct 738 -76 713 -27 661 -27 ct 612 -27 587 -78 587 -181 ct 
587 -284 612 -334 662 -334 ct p ef
pom
0.207 0.398 0.644 c 8618 2625 m  8803 2625 8945 2787 8945 3000 ct 8945 3212 8803 3375 8618 3375 ct 
8432 3375 8290 3212 8290 3000 ct 8290 2787 8432 2625 8618 2625 ct pc
8290 2625 m  8290 2625 l  pc
8946 3376 m  8946 3376 l  pc
pum
8101 2516 t
0.003 0.003 0.003 c 29 -385 m  29 0 l  68 0 l  68 -36 l  89 -3 117 12 156 12 ct 
229 12 277 -48 277 -140 ct 277 -230 231 -285 158 -285 ct 120 -285 93 -271 72 -240 ct 
72 -385 l  29 -385 l  p
150 -244 m  199 -244 231 -201 231 -135 ct 231 -72 198 -29 150 -29 ct 103 -29 72 -72 72 -137 ct 
72 -202 103 -244 150 -244 ct p ef
404 -375 m  370 -375 338 -360 318 -334 ct 294 -301 282 -251 282 -182 ct 282 -55 324 12 404 12 ct 
484 12 527 -55 527 -178 ct 527 -251 516 -300 491 -334 ct 471 -360 440 -375 404 -375 ct 
p
404 -334 m  455 -334 480 -283 480 -183 ct 480 -76 455 -27 403 -27 ct 354 -27 329 -78 329 -181 ct 
329 -284 354 -334 404 -334 ct p ef
769 -375 m  575 -375 l  547 -171 l  590 -171 l  612 -197 630 -206 659 -206 ct 
709 -206 741 -171 741 -116 ct 741 -62 710 -29 659 -29 ct 618 -29 593 -50 582 -92 ct 
536 -92 l  542 -61 547 -47 558 -33 ct 579 -4 618 12 660 12 ct 735 12 788 -43 788 -122 ct 
788 -196 739 -247 667 -247 ct 641 -247 620 -240 598 -224 ct 613 -329 l  769 -329 l 
769 -375 l  p ef
1028 -375 m  834 -375 l  806 -171 l  849 -171 l  871 -197 889 -206 918 -206 ct 
968 -206 1000 -171 1000 -116 ct 1000 -62 969 -29 918 -29 ct 877 -29 852 -50 841 -92 ct 
795 -92 l  801 -61 806 -47 817 -33 ct 838 -4 877 12 919 12 ct 994 12 1047 -43 1047 -122 ct 
1047 -196 998 -247 926 -247 ct 900 -247 879 -240 857 -224 ct 872 -329 l  1028 -329 l 
1028 -375 l  p ef
pom
1 lw 4255 4000 m  8367 4000 l  ps
8836 4000 m  8345 3813 l  8345 4188 l  8836 4000 l  p ef
pum
8564 4688 t
134 -277 m  89 -277 l  89 -354 l  45 -354 l  45 -277 l  7 -277 l  7 -241 l 
45 -241 l  45 -32 l  45 -4 64 12 98 12 ct 109 12 120 11 134 8 ct 134 -29 l  129 -27 122 -27 113 -27 ct 
94 -27 89 -32 89 -51 ct 89 -241 l  134 -241 l  134 -277 l  p ef
pom
9818 1750 m  9141 2720 l  ps
8945 3000 m  9235 2785 l  9064 2629 l  8945 3000 l  p ef
8291 3000 m  7404 3000 l  ps
7091 3000 m  7418 3125 l  7418 2875 l  7091 3000 l  p ef
6436 3000 m  5440 3000 l  ps
5127 3000 m  5455 3125 l  5455 2875 l  5127 3000 l  p ef
4473 3000 m  3477 3000 l  ps
3164 3000 m  3491 3125 l  3491 2875 l  3164 3000 l  p ef
0 lw 2509 3000 m  1636 3000 l  ps
0.207 0.398 0.644 c 10854 2125 m  9818 2125 l  9818 1375 l  11890 1375 l 
11890 2125 l  10854 2125 l  pc
pum
10149 1928 t
0.003 0.003 0.003 c 37 -277 m  37 0 l  81 0 l  81 -174 l  81 -214 111 -246 147 -246 ct 
179 -246 198 -226 198 -191 ct 198 0 l  242 0 l  242 -174 l  242 -214 271 -246 307 -246 ct 
340 -246 359 -226 359 -191 ct 359 0 l  403 0 l  403 -208 l  403 -258 375 -285 323 -285 ct 
286 -285 263 -274 238 -243 ct 221 -272 199 -285 163 -285 ct 126 -285 102 -271 78 -238 ct 
78 -277 l  37 -277 l  p ef
666 -26 m  661 -25 659 -25 657 -25 ct 641 -25 633 -33 633 -47 ct 633 -209 l 
633 -259 597 -285 528 -285 ct 488 -285 455 -273 436 -253 ct 424 -238 418 -223 417 -195 ct 
462 -195 l  466 -229 486 -244 527 -244 ct 567 -244 589 -230 589 -203 ct 589 -191 l 
589 -173 578 -165 543 -161 ct 480 -153 471 -151 454 -144 ct 422 -131 405 -106 405 -70 ct 
405 -20 440 12 496 12 ct 531 12 559 0 590 -29 ct 594 -1 607 12 636 12 ct 645 12 652 11 666 7 ct 
666 -26 l  p
589 -87 m  589 -73 585 -64 571 -51 ct 553 -35 532 -27 506 -27 ct 471 -27 451 -43 451 -71 ct 
451 -100 471 -115 518 -122 ct 564 -128 574 -130 589 -137 ct 589 -87 l  p ef
873 -200 m  872 -254 836 -285 772 -285 ct 708 -285 666 -252 666 -200 ct 666 -157 688 -137 754 -121 ct 
795 -111 l  826 -103 838 -92 838 -72 ct 838 -46 812 -29 773 -29 ct 749 -29 729 -36 718 -47 ct 
711 -55 708 -63 706 -83 ct 659 -83 l  661 -19 697 12 770 12 ct 839 12 884 -22 884 -76 ct 
884 -117 861 -140 806 -153 ct 763 -163 l  727 -171 712 -183 712 -203 ct 712 -228 735 -244 771 -244 ct 
806 -244 825 -229 826 -200 ct 873 -200 l  p ef
1007 -277 m  962 -277 l  962 -354 l  918 -354 l  918 -277 l  880 -277 l 
880 -241 l  918 -241 l  918 -32 l  918 -4 937 12 971 12 ct 982 12 993 11 1007 8 ct 
1007 -29 l  1002 -27 995 -27 986 -27 ct 967 -27 962 -32 962 -51 ct 962 -241 l 
1007 -241 l  1007 -277 l  p ef
1274 -124 m  1274 -166 1271 -192 1263 -212 ct 1245 -258 1203 -285 1151 -285 ct 
1074 -285 1024 -226 1024 -135 ct 1024 -44 1072 12 1150 12 ct 1214 12 1257 -24 1269 -84 ct 
1224 -84 l  1212 -48 1187 -29 1152 -29 ct 1124 -29 1100 -41 1085 -65 ct 1074 -81 1071 -96 1070 -124 ct 
1274 -124 l  p
1071 -160 m  1075 -211 1106 -244 1151 -244 ct 1194 -244 1227 -208 1227 -163 ct 
1227 -162 1227 -161 1227 -160 ct 1071 -160 l  p ef
1298 -277 m  1298 0 l  1342 0 l  1342 -144 l  1342 -183 1352 -209 1373 -225 ct 
1387 -235 1400 -238 1431 -238 ct 1431 -283 l  1423 -284 1420 -285 1414 -285 ct 
1385 -285 1364 -268 1338 -227 ct 1338 -277 l  1298 -277 l  p ef
pom
gr
gs
0 0 m 11999 0 l 11999 4999 l 0 4999 l 0 0 l eoclip newpath
gr
gr
0 5000 t 
pom
count op_count sub {pop} repeat countdictstack dict_count sub {end} repeat b4_inc_state restore
%%PageTrailer
%%Trailer
%%EOF
