%!PS-Adobe-3.0 EPSF-3.0 
%%BoundingBox: 0 0 283 142
%%Pages: 0
%%Creator: LibreOffice 4.2
%%Title: none
%%CreationDate: none
%%LanguageLevel: 2
%%EndComments
%%BeginProlog
%%BeginResource: procset SDRes-Prolog 1.0 0
/b4_inc_state save def
/dict_count countdictstack def
/op_count count 1 sub def
userdict begin
0 setgray 0 setlinecap 1 setlinewidth 0 setlinejoin 10 setmiterlimit[] 0 setdash newpath
/languagelevel where {pop languagelevel 1 ne {false setstrokeadjust false setoverprint} if} if
/bdef {bind def} bind def
/c {setrgbcolor} bdef
/l {neg lineto} bdef
/rl {neg rlineto} bdef
/lc {setlinecap} bdef
/lj {setlinejoin} bdef
/lw {setlinewidth} bdef
/ml {setmiterlimit} bdef
/ld {setdash} bdef
/m {neg moveto} bdef
/ct {6 2 roll neg 6 2 roll neg 6 2 roll neg curveto} bdef
/r {rotate} bdef
/t {neg translate} bdef
/s {scale} bdef
/sw {show} bdef
/gs {gsave} bdef
/gr {grestore} bdef
/f {findfont dup length dict begin
{1 index /FID ne {def} {pop pop} ifelse} forall /Encoding ISOLatin1Encoding def
currentdict end /NFont exch definefont pop /NFont findfont} bdef
/p {closepath} bdef
/sf {scalefont setfont} bdef
/ef {eofill}bdef
/pc {closepath stroke}bdef
/ps {stroke}bdef
/pum {matrix currentmatrix}bdef
/pom {setmatrix}bdef
/bs {/aString exch def /nXOfs exch def /nWidth exch def currentpoint nXOfs 0 rmoveto pum nWidth aString stringwidth pop div 1 scale aString show pom moveto} bdef
%%EndResource
%%EndProlog
%%BeginSetup
%%EndSetup
%%Page: 1 1
%%BeginPageSetup
%%EndPageSetup
pum
0.0283 0.0284 s 
0 -5000 t
/tm matrix currentmatrix def
gs
tm setmatrix
-556 -625 t 
1 1 s 
556 625 m 10554 625 l 10554 5624 l 556 5624 l 556 625 l eoclip newpath
gs
0 0 m 9999 0 l 9999 4999 l 0 4999 l 0 0 l eoclip newpath
0 lw 1 lj 0.207 0.398 0.644 c 3444 2125 m  3633 2125 3777 2287 3777 2500 ct 
3777 2712 3633 2875 3444 2875 ct 3255 2875 3111 2712 3111 2500 ct 3111 2287 3255 2125 3444 2125 ct 
pc
3111 2125 m  3111 2125 l  pc
3778 2876 m  3778 2876 l  pc
pum
2918 2016 t
0.003 0.003 0.003 c 29 -385 m  29 0 l  68 0 l  68 -36 l  89 -3 117 12 156 12 ct 
229 12 277 -48 277 -140 ct 277 -230 231 -285 158 -285 ct 120 -285 93 -271 72 -240 ct 
72 -385 l  29 -385 l  p
150 -244 m  199 -244 231 -201 231 -135 ct 231 -72 198 -29 150 -29 ct 103 -29 72 -72 72 -137 ct 
72 -202 103 -244 150 -244 ct p ef
408 -375 m  374 -375 342 -360 322 -334 ct 298 -301 286 -251 286 -182 ct 286 -55 328 12 408 12 ct 
488 12 531 -55 531 -178 ct 531 -251 520 -300 495 -334 ct 475 -360 444 -375 408 -375 ct 
p
408 -334 m  459 -334 484 -283 484 -183 ct 484 -76 459 -27 407 -27 ct 358 -27 333 -78 333 -181 ct 
333 -284 358 -334 408 -334 ct p ef
556 -385 m  556 0 l  595 0 l  595 -36 l  616 -3 644 12 683 12 ct 756 12 804 -48 804 -140 ct 
804 -230 758 -285 685 -285 ct 647 -285 620 -271 599 -240 ct 599 -385 l  556 -385 l 
p
677 -244 m  726 -244 758 -201 758 -135 ct 758 -72 725 -29 677 -29 ct 630 -29 599 -72 599 -137 ct 
599 -202 630 -244 677 -244 ct p ef
935 -375 m  901 -375 869 -360 849 -334 ct 825 -301 813 -251 813 -182 ct 813 -55 855 12 935 12 ct 
1015 12 1058 -55 1058 -178 ct 1058 -251 1047 -300 1022 -334 ct 1002 -360 971 -375 935 -375 ct 
p
935 -334 m  986 -334 1011 -283 1011 -183 ct 1011 -76 986 -27 934 -27 ct 885 -27 860 -78 860 -181 ct 
860 -284 885 -334 935 -334 ct p ef
pom
0.207 0.398 0.644 c 5111 2125 m  5300 2125 5444 2287 5444 2500 ct 5444 2712 5300 2875 5111 2875 ct 
4922 2875 4777 2712 4777 2500 ct 4777 2287 4922 2125 5111 2125 ct pc
4777 2125 m  4777 2125 l  pc
5445 2876 m  5445 2876 l  pc
pum
4584 2016 t
0.003 0.003 0.003 c 29 -385 m  29 0 l  68 0 l  68 -36 l  89 -3 117 12 156 12 ct 
229 12 277 -48 277 -140 ct 277 -230 231 -285 158 -285 ct 120 -285 93 -271 72 -240 ct 
72 -385 l  29 -385 l  p
150 -244 m  199 -244 231 -201 231 -135 ct 231 -72 198 -29 150 -29 ct 103 -29 72 -72 72 -137 ct 
72 -202 103 -244 150 -244 ct p ef
546 -26 m  541 -25 539 -25 537 -25 ct 521 -25 513 -33 513 -47 ct 513 -209 l 
513 -259 477 -285 408 -285 ct 368 -285 335 -273 316 -253 ct 304 -238 298 -223 297 -195 ct 
342 -195 l  346 -229 366 -244 407 -244 ct 447 -244 469 -230 469 -203 ct 469 -191 l 
469 -173 458 -165 423 -161 ct 360 -153 351 -151 334 -144 ct 302 -131 285 -106 285 -70 ct 
285 -20 320 12 376 12 ct 411 12 439 0 470 -29 ct 474 -1 487 12 516 12 ct 525 12 532 11 546 7 ct 
546 -26 l  p
469 -87 m  469 -73 465 -64 451 -51 ct 433 -35 412 -27 386 -27 ct 351 -27 331 -43 331 -71 ct 
331 -100 351 -115 398 -122 ct 444 -128 454 -130 469 -137 ct 469 -87 l  p ef
556 -385 m  556 0 l  595 0 l  595 -36 l  616 -3 644 12 683 12 ct 756 12 804 -48 804 -140 ct 
804 -230 758 -285 685 -285 ct 647 -285 620 -271 599 -240 ct 599 -385 l  556 -385 l 
p
677 -244 m  726 -244 758 -201 758 -135 ct 758 -72 725 -29 677 -29 ct 630 -29 599 -72 599 -137 ct 
599 -202 630 -244 677 -244 ct p ef
1073 -26 m  1068 -25 1066 -25 1064 -25 ct 1048 -25 1040 -33 1040 -47 ct 1040 -209 l 
1040 -259 1004 -285 935 -285 ct 895 -285 862 -273 843 -253 ct 831 -238 825 -223 824 -195 ct 
869 -195 l  873 -229 893 -244 934 -244 ct 974 -244 996 -230 996 -203 ct 996 -191 l 
996 -173 985 -165 950 -161 ct 887 -153 878 -151 861 -144 ct 829 -131 812 -106 812 -70 ct 
812 -20 847 12 903 12 ct 938 12 966 0 997 -29 ct 1001 -1 1014 12 1043 12 ct 1052 12 1059 11 1073 7 ct 
1073 -26 l  p
996 -87 m  996 -73 992 -64 978 -51 ct 960 -35 939 -27 913 -27 ct 878 -27 858 -43 858 -71 ct 
858 -100 878 -115 925 -122 ct 971 -128 981 -130 996 -137 ct 996 -87 l  p ef
pom
0.207 0.398 0.644 c 6777 2125 m  6966 2125 7111 2287 7111 2500 ct 7111 2712 6966 2875 6777 2875 ct 
6588 2875 6444 2712 6444 2500 ct 6444 2287 6588 2125 6777 2125 ct pc
6444 2125 m  6444 2125 l  pc
7112 2876 m  7112 2876 l  pc
pum
6382 2016 t
0.003 0.003 0.003 c 136 -277 m  90 -277 l  90 -320 l  90 -338 101 -348 121 -348 ct 
125 -348 126 -348 136 -348 ct 136 -384 l  126 -386 121 -387 112 -387 ct 71 -387 47 -364 47 -324 ct 
47 -277 l  10 -277 l  10 -241 l  47 -241 l  47 0 l  90 0 l  90 -241 l 
136 -241 l  136 -277 l  p ef
277 -375 m  243 -375 211 -360 191 -334 ct 167 -301 155 -251 155 -182 ct 155 -55 197 12 277 12 ct 
357 12 400 -55 400 -178 ct 400 -251 389 -300 364 -334 ct 344 -360 313 -375 277 -375 ct 
p
277 -334 m  328 -334 353 -283 353 -183 ct 353 -76 328 -27 276 -27 ct 227 -27 202 -78 202 -181 ct 
202 -284 227 -334 277 -334 ct p ef
532 -277 m  486 -277 l  486 -320 l  486 -338 497 -348 517 -348 ct 521 -348 522 -348 532 -348 ct 
532 -384 l  522 -386 517 -387 508 -387 ct 467 -387 443 -364 443 -324 ct 443 -277 l 
406 -277 l  406 -241 l  443 -241 l  443 0 l  486 0 l  486 -241 l  532 -241 l 
532 -277 l  p ef
672 -375 m  638 -375 606 -360 586 -334 ct 562 -301 550 -251 550 -182 ct 550 -55 592 12 672 12 ct 
752 12 795 -55 795 -178 ct 795 -251 784 -300 759 -334 ct 739 -360 708 -375 672 -375 ct 
p
672 -334 m  723 -334 748 -283 748 -183 ct 748 -76 723 -27 671 -27 ct 622 -27 597 -78 597 -181 ct 
597 -284 622 -334 672 -334 ct p ef
pom
0.207 0.398 0.644 c 8444 2125 m  8633 2125 8777 2287 8777 2500 ct 8777 2712 8633 2875 8444 2875 ct 
8255 2875 8111 2712 8111 2500 ct 8111 2287 8255 2125 8444 2125 ct pc
8111 2125 m  8111 2125 l  pc
8778 2876 m  8778 2876 l  pc
pum
7918 2016 t
0.003 0.003 0.003 c 29 -385 m  29 0 l  68 0 l  68 -36 l  89 -3 117 12 156 12 ct 
229 12 277 -48 277 -140 ct 277 -230 231 -285 158 -285 ct 120 -285 93 -271 72 -240 ct 
72 -385 l  29 -385 l  p
150 -244 m  199 -244 231 -201 231 -135 ct 231 -72 198 -29 150 -29 ct 103 -29 72 -72 72 -137 ct 
72 -202 103 -244 150 -244 ct p ef
408 -375 m  374 -375 342 -360 322 -334 ct 298 -301 286 -251 286 -182 ct 286 -55 328 12 408 12 ct 
488 12 531 -55 531 -178 ct 531 -251 520 -300 495 -334 ct 475 -360 444 -375 408 -375 ct 
p
408 -334 m  459 -334 484 -283 484 -183 ct 484 -76 459 -27 407 -27 ct 358 -27 333 -78 333 -181 ct 
333 -284 358 -334 408 -334 ct p ef
779 -375 m  585 -375 l  557 -171 l  600 -171 l  622 -197 640 -206 669 -206 ct 
719 -206 751 -171 751 -116 ct 751 -62 720 -29 669 -29 ct 628 -29 603 -50 592 -92 ct 
546 -92 l  552 -61 557 -47 568 -33 ct 589 -4 628 12 670 12 ct 745 12 798 -43 798 -122 ct 
798 -196 749 -247 677 -247 ct 651 -247 630 -240 608 -224 ct 623 -329 l  779 -329 l 
779 -375 l  p ef
1042 -375 m  848 -375 l  820 -171 l  863 -171 l  885 -197 903 -206 932 -206 ct 
982 -206 1014 -171 1014 -116 ct 1014 -62 983 -29 932 -29 ct 891 -29 866 -50 855 -92 ct 
809 -92 l  815 -61 820 -47 831 -33 ct 852 -4 891 12 933 12 ct 1008 12 1061 -43 1061 -122 ct 
1061 -196 1012 -247 940 -247 ct 914 -247 893 -240 871 -224 ct 886 -329 l  1042 -329 l 
1042 -375 l  p ef
pom
8777 2500 m  9333 2500 l  ps
pum
1500 3164 t
37 -277 m  37 0 l  81 0 l  81 -174 l  81 -214 111 -246 147 -246 ct 179 -246 198 -226 198 -191 ct 
198 0 l  242 0 l  242 -174 l  242 -214 271 -246 307 -246 ct 340 -246 359 -226 359 -191 ct 
359 0 l  403 0 l  403 -208 l  403 -258 375 -285 323 -285 ct 286 -285 263 -274 238 -243 ct 
221 -272 199 -285 163 -285 ct 126 -285 102 -271 78 -238 ct 78 -277 l  37 -277 l 
p ef
673 -26 m  668 -25 666 -25 664 -25 ct 648 -25 640 -33 640 -47 ct 640 -209 l 
640 -259 604 -285 535 -285 ct 495 -285 462 -273 443 -253 ct 431 -238 425 -223 424 -195 ct 
469 -195 l  473 -229 493 -244 534 -244 ct 574 -244 596 -230 596 -203 ct 596 -191 l 
596 -173 585 -165 550 -161 ct 487 -153 478 -151 461 -144 ct 429 -131 412 -106 412 -70 ct 
412 -20 447 12 503 12 ct 538 12 566 0 597 -29 ct 601 -1 614 12 643 12 ct 652 12 659 11 673 7 ct 
673 -26 l  p
596 -87 m  596 -73 592 -64 578 -51 ct 560 -35 539 -27 513 -27 ct 478 -27 458 -43 458 -71 ct 
458 -100 478 -115 525 -122 ct 571 -128 581 -130 596 -137 ct 596 -87 l  p ef
885 -200 m  884 -254 848 -285 784 -285 ct 720 -285 678 -252 678 -200 ct 678 -157 700 -137 766 -121 ct 
807 -111 l  838 -103 850 -92 850 -72 ct 850 -46 824 -29 785 -29 ct 761 -29 741 -36 730 -47 ct 
723 -55 720 -63 718 -83 ct 671 -83 l  673 -19 709 12 782 12 ct 851 12 896 -22 896 -76 ct 
896 -117 873 -140 818 -153 ct 775 -163 l  739 -171 724 -183 724 -203 ct 724 -228 747 -244 783 -244 ct 
818 -244 837 -229 838 -200 ct 885 -200 l  p ef
1023 -277 m  978 -277 l  978 -354 l  934 -354 l  934 -277 l  896 -277 l 
896 -241 l  934 -241 l  934 -32 l  934 -4 953 12 987 12 ct 998 12 1009 11 1023 8 ct 
1023 -29 l  1018 -27 1011 -27 1002 -27 ct 983 -27 978 -32 978 -51 ct 978 -241 l 
1023 -241 l  1023 -277 l  p ef
1292 -124 m  1292 -166 1289 -192 1281 -212 ct 1263 -258 1221 -285 1169 -285 ct 
1092 -285 1042 -226 1042 -135 ct 1042 -44 1090 12 1168 12 ct 1232 12 1275 -24 1287 -84 ct 
1242 -84 l  1230 -48 1205 -29 1170 -29 ct 1142 -29 1118 -41 1103 -65 ct 1092 -81 1089 -96 1088 -124 ct 
1292 -124 l  p
1089 -160 m  1093 -211 1124 -244 1169 -244 ct 1212 -244 1245 -208 1245 -163 ct 
1245 -162 1245 -161 1245 -160 ct 1089 -160 l  p ef
1321 -277 m  1321 0 l  1365 0 l  1365 -144 l  1365 -183 1375 -209 1396 -225 ct 
1410 -235 1423 -238 1454 -238 ct 1454 -283 l  1446 -284 1443 -285 1437 -285 ct 
1408 -285 1387 -268 1361 -227 ct 1361 -277 l  1321 -277 l  p ef
pom
1 lw 3444 3774 m  7633 3774 l  ps
8111 3774 m  7611 3586 l  7611 3961 l  8111 3774 l  p ef
pum
7833 4313 t
134 -277 m  89 -277 l  89 -354 l  45 -354 l  45 -277 l  7 -277 l  7 -241 l 
45 -241 l  45 -32 l  45 -4 64 12 98 12 ct 109 12 120 11 134 8 ct 134 -29 l  129 -27 122 -27 113 -27 ct 
94 -27 89 -32 89 -51 ct 89 -241 l  134 -241 l  134 -277 l  p ef
pom
1834 2529 m  2792 2508 l  ps
3111 2500 m  2776 2383 l  2780 2633 l  3111 2500 l  p ef
3778 2500 m  4459 2500 l  ps
4778 2500 m  4444 2375 l  4444 2625 l  4778 2500 l  p ef
5444 2500 m  6126 2500 l  ps
6444 2500 m  6111 2375 l  6111 2625 l  6444 2500 l  p ef
7111 2500 m  7792 2500 l  ps
8111 2500 m  7778 2375 l  7778 2625 l  8111 2500 l  p ef
gr
gs
0 0 m 9999 0 l 9999 4999 l 0 4999 l 0 0 l eoclip newpath
gr
gr
0 5000 t 
pom
count op_count sub {pop} repeat countdictstack dict_count sub {end} repeat b4_inc_state restore
%%PageTrailer
%%Trailer
%%EOF
