%!PS-Adobe-3.0 EPSF-3.0 
%%BoundingBox: 0 0 255 113
%%Pages: 0
%%Creator: LibreOffice 4.2
%%Title: none
%%CreationDate: none
%%LanguageLevel: 2
%%EndComments
%%BeginProlog
%%BeginResource: procset SDRes-Prolog 1.0 0
/b4_inc_state save def
/dict_count countdictstack def
/op_count count 1 sub def
userdict begin
0 setgray 0 setlinecap 1 setlinewidth 0 setlinejoin 10 setmiterlimit[] 0 setdash newpath
/languagelevel where {pop languagelevel 1 ne {false setstrokeadjust false setoverprint} if} if
/bdef {bind def} bind def
/c {setrgbcolor} bdef
/l {neg lineto} bdef
/rl {neg rlineto} bdef
/lc {setlinecap} bdef
/lj {setlinejoin} bdef
/lw {setlinewidth} bdef
/ml {setmiterlimit} bdef
/ld {setdash} bdef
/m {neg moveto} bdef
/ct {6 2 roll neg 6 2 roll neg 6 2 roll neg curveto} bdef
/r {rotate} bdef
/t {neg translate} bdef
/s {scale} bdef
/sw {show} bdef
/gs {gsave} bdef
/gr {grestore} bdef
/f {findfont dup length dict begin
{1 index /FID ne {def} {pop pop} ifelse} forall /Encoding ISOLatin1Encoding def
currentdict end /NFont exch definefont pop /NFont findfont} bdef
/p {closepath} bdef
/sf {scalefont setfont} bdef
/ef {eofill}bdef
/pc {closepath stroke}bdef
/ps {stroke}bdef
/pum {matrix currentmatrix}bdef
/pom {setmatrix}bdef
/bs {/aString exch def /nXOfs exch def /nWidth exch def currentpoint nXOfs 0 rmoveto pum nWidth aString stringwidth pop div 1 scale aString show pom moveto} bdef
%%EndResource
%%EndProlog
%%BeginSetup
%%EndSetup
%%Page: 1 1
%%BeginPageSetup
%%EndPageSetup
pum
0.02833 0.02825 s 
0 -4000 t
/tm matrix currentmatrix def
gs
tm setmatrix
-563 -667 t 
1 1 s 
563 667 m 9561 667 l 9561 4665 l 563 4665 l 563 667 l eoclip newpath
gs
0 0 m 8999 0 l 8999 3999 l 0 3999 l 0 0 l eoclip newpath
0 lw 1 lj 0.207 0.398 0.644 c 3600 1333 m  3791 1333 3937 1506 3937 1733 ct 
3937 1960 3791 2133 3600 2133 ct 3408 2133 3262 1960 3262 1733 ct 3262 1506 3408 1333 3600 1333 ct 
pc
3262 1333 m  3262 1333 l  pc
3938 2134 m  3938 2134 l  pc
pum
3466 1923 t
0.003 0.003 0.003 c 146 -285 m  146 0 l  196 0 l  196 -400 l  163 -400 l  146 -338 134 -330 58 -320 ct 
58 -285 l  146 -285 l  p ef
pom
0.207 0.398 0.644 c 4725 1333 m  4916 1333 5062 1506 5062 1733 ct 5062 1960 4916 2133 4725 2133 ct 
4533 2133 4387 1960 4387 1733 ct 4387 1506 4533 1333 4725 1333 ct pc
4387 1333 m  4387 1333 l  pc
5063 2134 m  5063 2134 l  pc
pum
4458 1923 t
0.003 0.003 0.003 c 146 -285 m  146 0 l  196 0 l  196 -400 l  163 -400 l  146 -338 134 -330 58 -320 ct 
58 -285 l  146 -285 l  p ef
552 -49 m  342 -49 l  347 -82 365 -103 414 -131 ct 471 -162 l  526 -192 555 -234 555 -283 ct 
555 -316 542 -347 518 -368 ct 494 -390 465 -400 427 -400 ct 376 -400 339 -382 317 -348 ct 
303 -327 296 -302 295 -261 ct 345 -261 l  347 -288 350 -305 357 -318 ct 370 -342 396 -357 425 -357 ct 
471 -357 504 -324 504 -282 ct 504 -250 486 -223 450 -203 ct 398 -173 l  315 -126 291 -88 286 0 ct 
552 0 l  552 -49 l  p ef
pom
0.207 0.398 0.644 c 5850 1333 m  6041 1333 6187 1506 6187 1733 ct 6187 1960 6041 2133 5850 2133 ct 
5658 2133 5512 1960 5512 1733 ct 5512 1506 5658 1333 5850 1333 ct pc
5512 1333 m  5512 1333 l  pc
6188 2134 m  6188 2134 l  pc
pum
5583 1923 t
0.003 0.003 0.003 c 125 -183 m  131 -183 l  152 -183 l  206 -183 235 -158 235 -111 ct 
235 -61 204 -31 152 -31 ct 98 -31 71 -58 68 -116 ct 18 -116 l  20 -84 26 -63 36 -45 ct 
56 -7 95 13 150 13 ct 232 13 285 -36 285 -111 ct 285 -162 266 -190 218 -207 ct 
255 -221 274 -250 274 -290 ct 274 -359 228 -400 152 -400 ct 71 -400 28 -356 27 -271 ct 
76 -271 l  77 -295 79 -308 85 -321 ct 96 -343 121 -357 152 -357 ct 196 -357 223 -330 223 -288 ct 
223 -259 213 -242 191 -233 ct 177 -228 160 -225 125 -225 ct 125 -183 l  p ef
451 -96 m  451 0 l  501 0 l  501 -96 l  560 -96 l  560 -141 l  501 -141 l 
501 -400 l  464 -400 l  283 -148 l  283 -96 l  451 -96 l  p
451 -141 m  326 -141 l  451 -315 l  451 -141 l  p ef
pom
0.207 0.398 0.644 c 6975 1333 m  7166 1333 7312 1506 7312 1733 ct 7312 1960 7166 2133 6975 2133 ct 
6783 2133 6637 1960 6637 1733 ct 6637 1506 6783 1333 6975 1333 ct pc
6637 1333 m  6637 1333 l  pc
7313 2134 m  7313 2134 l  pc
pum
6708 1923 t
0.003 0.003 0.003 c 125 -183 m  131 -183 l  152 -183 l  206 -183 235 -158 235 -111 ct 
235 -61 204 -31 152 -31 ct 98 -31 71 -58 68 -116 ct 18 -116 l  20 -84 26 -63 36 -45 ct 
56 -7 95 13 150 13 ct 232 13 285 -36 285 -111 ct 285 -162 266 -190 218 -207 ct 
255 -221 274 -250 274 -290 ct 274 -359 228 -400 152 -400 ct 71 -400 28 -356 27 -271 ct 
76 -271 l  77 -295 79 -308 85 -321 ct 96 -343 121 -357 152 -357 ct 196 -357 223 -330 223 -288 ct 
223 -259 213 -242 191 -233 ct 177 -228 160 -225 125 -225 ct 125 -183 l  p ef
535 -400 m  329 -400 l  299 -182 l  345 -182 l  368 -209 387 -219 418 -219 ct 
472 -219 506 -182 506 -123 ct 506 -66 472 -31 418 -31 ct 375 -31 348 -53 336 -98 ct 
287 -98 l  294 -65 299 -50 311 -35 ct 334 -4 374 13 419 13 ct 500 13 556 -46 556 -130 ct 
556 -209 504 -263 427 -263 ct 399 -263 376 -256 353 -239 ct 369 -351 l  535 -351 l 
535 -400 l  p ef
pom
0.207 0.398 0.644 c 3937 1733 m  4387 1733 l  ps
5062 1733 m  5512 1733 l  ps
6187 1733 m  6637 1733 l  ps
0.003 0.003 0.003 c 3262 1733 m  2812 1733 l  ps
7312 1733 m  7875 1733 l  ps
pum
1856 2441 t
143 -295 m  95 -295 l  95 -377 l  48 -377 l  48 -295 l  8 -295 l  8 -257 l 
48 -257 l  48 -34 l  48 -4 68 13 105 13 ct 116 13 127 12 143 9 ct 143 -30 l 
137 -29 130 -28 121 -28 ct 100 -28 95 -34 95 -55 ct 95 -257 l  143 -257 l  143 -295 l 
p ef
173 -296 m  173 0 l  220 0 l  220 -153 l  220 -196 231 -223 254 -240 ct 268 -250 282 -254 315 -254 ct 
315 -302 l  307 -303 303 -304 297 -304 ct 267 -304 243 -286 216 -242 ct 216 -296 l 
173 -296 l  p ef
562 0 m  562 -296 l  515 -296 l  515 -128 l  515 -68 483 -28 434 -28 ct 397 -28 373 -51 373 -86 ct 
373 -296 l  327 -296 l  327 -68 l  327 -19 363 13 421 13 ct 464 13 492 -2 520 -41 ct 
520 0 l  562 0 l  p ef
596 -296 m  596 0 l  644 0 l  644 -163 l  644 -223 675 -263 724 -263 ct 761 -263 785 -240 785 -205 ct 
785 0 l  832 0 l  832 -223 l  832 -272 795 -304 738 -304 ct 694 -304 666 -287 640 -246 ct 
640 -296 l  596 -296 l  p ef
904 -411 m  857 -411 l  857 0 l  904 0 l  904 -115 l  949 -160 l  1049 0 l 
1107 0 l  986 -193 l  1089 -296 l  1029 -296 l  904 -170 l  904 -411 l 
p ef
pom
1 lw 3375 3200 m  7616 3200 l  ps
8100 3200 m  7594 3000 l  7594 3400 l  8100 3200 l  p ef
pum
7992 4041 t
143 -295 m  95 -295 l  95 -377 l  48 -377 l  48 -295 l  8 -295 l  8 -257 l 
48 -257 l  48 -34 l  48 -4 68 13 105 13 ct 116 13 127 12 143 9 ct 143 -30 l 
137 -29 130 -28 121 -28 ct 100 -28 95 -34 95 -55 ct 95 -257 l  143 -257 l  143 -295 l 
p ef
pom
gr
gs
0 0 m 8999 0 l 8999 3999 l 0 3999 l 0 0 l eoclip newpath
gr
gr
0 4000 t 
pom
count op_count sub {pop} repeat countdictstack dict_count sub {end} repeat b4_inc_state restore
%%PageTrailer
%%Trailer
%%EOF
