%!PS-Adobe-3.0 EPSF-3.0 
%%BoundingBox: 0 0 510 227
%%Pages: 0
%%Creator: LibreOffice 4.2
%%Title: none
%%CreationDate: none
%%LanguageLevel: 2
%%EndComments
%%BeginProlog
%%BeginResource: procset SDRes-Prolog 1.0 0
/b4_inc_state save def
/dict_count countdictstack def
/op_count count 1 sub def
userdict begin
0 setgray 0 setlinecap 1 setlinewidth 0 setlinejoin 10 setmiterlimit[] 0 setdash newpath
/languagelevel where {pop languagelevel 1 ne {false setstrokeadjust false setoverprint} if} if
/bdef {bind def} bind def
/c {setrgbcolor} bdef
/l {neg lineto} bdef
/rl {neg rlineto} bdef
/lc {setlinecap} bdef
/lj {setlinejoin} bdef
/lw {setlinewidth} bdef
/ml {setmiterlimit} bdef
/ld {setdash} bdef
/m {neg moveto} bdef
/ct {6 2 roll neg 6 2 roll neg 6 2 roll neg curveto} bdef
/r {rotate} bdef
/t {neg translate} bdef
/s {scale} bdef
/sw {show} bdef
/gs {gsave} bdef
/gr {grestore} bdef
/f {findfont dup length dict begin
{1 index /FID ne {def} {pop pop} ifelse} forall /Encoding ISOLatin1Encoding def
currentdict end /NFont exch definefont pop /NFont findfont} bdef
/p {closepath} bdef
/sf {scalefont setfont} bdef
/ef {eofill}bdef
/pc {closepath stroke}bdef
/ps {stroke}bdef
/pum {matrix currentmatrix}bdef
/pom {setmatrix}bdef
/bs {/aString exch def /nXOfs exch def /nWidth exch def currentpoint nXOfs 0 rmoveto pum nWidth aString stringwidth pop div 1 scale aString show pom moveto} bdef
%%EndResource
%%EndProlog
%%BeginSetup
%%EndSetup
%%Page: 1 1
%%BeginPageSetup
%%EndPageSetup
pum
0.02833 0.02837 s 
0 -8000 t
/tm matrix currentmatrix def
gs
tm setmatrix
-529 -571 t 
1 1 s 
529 571 m 18528 571 l 18528 8570 l 529 8570 l 529 571 l eoclip newpath
gs
0 0 m 17999 0 l 17999 7999 l 0 7999 l 0 0 l eoclip newpath
0 lw 1 lj 0.207 0.398 0.644 c 1588 4114 m  1948 4114 2223 4411 2223 4800 ct 
2223 5188 1948 5485 1588 5485 ct 1228 5485 952 5188 952 4800 ct 952 4411 1228 4114 1588 4114 ct 
pc
952 4114 m  952 4114 l  pc
2224 5486 m  2224 5486 l  pc
pum
1463 4962 t
0.003 0.003 0.003 c 244 -42 m  64 -42 l  69 -70 84 -88 126 -112 ct 174 -138 l 
222 -164 247 -200 247 -242 ct 247 -270 235 -297 215 -315 ct 195 -333 170 -342 137 -342 ct 
94 -342 61 -327 43 -298 ct 30 -279 25 -258 24 -223 ct 67 -223 l  68 -246 71 -260 77 -272 ct 
88 -292 110 -305 136 -305 ct 174 -305 203 -277 203 -241 ct 203 -214 187 -191 157 -173 ct 
113 -148 l  41 -108 20 -75 16 0 ct 244 0 l  244 -42 l  p ef
pom
0.207 0.398 0.644 c 4129 4114 m  4489 4114 4764 4411 4764 4800 ct 4764 5188 4489 5485 4129 5485 ct 
3769 5485 3494 5188 3494 4800 ct 3494 4411 3769 4114 4129 4114 ct pc
3494 4114 m  3494 4114 l  pc
4765 5486 m  4765 5486 l  pc
pum
4004 4962 t
0.003 0.003 0.003 c 158 -82 m  158 0 l  200 0 l  200 -82 l  251 -82 l  251 -120 l 
200 -120 l  200 -342 l  169 -342 l  14 -127 l  14 -82 l  158 -82 l  p
158 -120 m  51 -120 l  158 -270 l  158 -120 l  p ef
pom
0.207 0.398 0.644 c 7941 4114 m  8301 4114 8576 4411 8576 4800 ct 8576 5188 8301 5485 7941 5485 ct 
7581 5485 7305 5188 7305 4800 ct 7305 4411 7581 4114 7941 4114 ct pc
7305 4114 m  7305 4114 l  pc
8577 5486 m  8577 5486 l  pc
pum
7816 4962 t
0.003 0.003 0.003 c 230 -342 m  53 -342 l  28 -156 l  67 -156 l  86 -180 103 -188 129 -188 ct 
175 -188 204 -157 204 -106 ct 204 -57 176 -27 129 -27 ct 92 -27 70 -45 59 -84 ct 
17 -84 l  23 -56 28 -43 38 -30 ct 57 -4 92 11 130 11 ct 199 11 248 -39 248 -112 ct 
248 -179 203 -226 137 -226 ct 113 -226 94 -219 74 -205 ct 87 -300 l  230 -300 l 
230 -342 l  p ef
pom
0.207 0.398 0.644 c 11541 4114 m  11901 4114 12176 4411 12176 4800 ct 12176 5188 11901 5485 11541 5485 ct 
11181 5485 10905 5188 10905 4800 ct 10905 4411 11181 4114 11541 4114 ct pc
10905 4114 m  10905 4114 l  pc
12177 5486 m  12177 5486 l  pc
pum
11416 4962 t
0.003 0.003 0.003 c 189 -180 m  224 -201 236 -219 236 -251 ct 236 -304 194 -342 133 -342 ct 
72 -342 30 -304 30 -251 ct 30 -219 42 -202 76 -180 ct 37 -161 18 -133 18 -95 ct 
18 -32 65 11 133 11 ct 200 11 248 -32 248 -95 ct 248 -133 228 -161 189 -180 ct 
p
133 -304 m  169 -304 192 -283 192 -250 ct 192 -218 169 -197 133 -197 ct 97 -197 73 -218 73 -250 ct 
73 -283 97 -304 133 -304 ct p
133 -161 m  175 -161 204 -134 204 -94 ct 204 -54 175 -27 132 -27 ct 90 -27 61 -54 61 -94 ct 
61 -134 90 -161 133 -161 ct p ef
pom
1 lw 2224 4800 m  3190 4800 l  ps
3494 4800 m  3176 4686 l  3176 4914 l  3494 4800 l  p ef
4765 4800 m  7002 4800 l  ps
7306 4800 m  6988 4686 l  6988 4914 l  7306 4800 l  p ef
8576 4800 m  10602 4800 l  ps
10906 4800 m  10588 4686 l  10588 4914 l  10906 4800 l  p ef
0 lw 0.207 0.398 0.644 c 14294 4114 m  14654 4114 14929 4411 14929 4800 ct 
14929 5188 14654 5485 14294 5485 ct 13934 5485 13658 5188 13658 4800 ct 13658 4411 13934 4114 14294 4114 ct 
pc
13658 4114 m  13658 4114 l  pc
14930 5486 m  14930 5486 l  pc
pum
14169 4962 t
0.003 0.003 0.003 c 251 -342 m  22 -342 l  22 -300 l  207 -300 l  126 -184 92 -112 67 0 ct 
112 0 l  131 -109 174 -204 251 -306 ct 251 -342 l  p ef
pom
1 lw 12176 4800 m  13355 4800 l  ps
13659 4800 m  13341 4686 l  13341 4914 l  13659 4800 l  p ef
0 lw 0.207 0.398 0.644 c 6247 1142 m  6607 1142 6882 1440 6882 1828 ct 6882 2217 6607 2514 6247 2514 ct 
5887 2514 5611 2217 5611 1828 ct 5611 1440 5887 1142 6247 1142 ct pc
5611 1142 m  5611 1142 l  pc
6883 2515 m  6883 2515 l  pc
pum
6122 1991 t
0.003 0.003 0.003 c 107 -157 m  112 -157 l  130 -157 l  177 -157 201 -136 201 -95 ct 
201 -52 174 -27 130 -27 ct 84 -27 61 -50 58 -99 ct 15 -99 l  17 -72 22 -54 30 -39 ct 
48 -6 82 11 128 11 ct 199 11 244 -31 244 -96 ct 244 -139 228 -163 186 -177 ct 218 -190 234 -214 234 -248 ct 
234 -307 195 -342 130 -342 ct 61 -342 24 -305 23 -232 ct 65 -232 l  66 -252 68 -264 73 -275 ct 
83 -293 104 -305 130 -305 ct 168 -305 191 -283 191 -246 ct 191 -222 182 -208 163 -200 ct 
152 -195 137 -193 107 -193 ct 107 -157 l  p ef
pom
1 lw 4579 4314 m  5631 2589 l  ps
5797 2314 m  5534 2538 l  5711 2664 l  5797 2314 l  p ef
0 lw 0.207 0.398 0.644 c 9423 1142 m  9783 1142 10058 1440 10058 1828 ct 10058 2217 9783 2514 9423 2514 ct 
9063 2514 8788 2217 8788 1828 ct 8788 1440 9063 1142 9423 1142 ct pc
8788 1142 m  8788 1142 l  pc
10059 2515 m  10059 2515 l  pc
pum
9299 1991 t
0.003 0.003 0.003 c 241 -253 m  232 -309 196 -342 143 -342 ct 106 -342 72 -324 52 -293 ct 
30 -260 21 -218 21 -156 ct 21 -98 29 -62 50 -31 ct 68 -4 98 11 136 11 ct 201 11 248 -37 248 -104 ct 
248 -168 204 -213 143 -213 ct 109 -213 83 -200 64 -175 ct 65 -258 92 -304 141 -304 ct 
171 -304 191 -286 198 -253 ct 241 -253 l  p
138 -175 m  179 -175 204 -147 204 -101 ct 204 -58 175 -27 136 -27 ct 97 -27 67 -59 67 -103 ct 
67 -146 96 -175 138 -175 ct p ef
pom
1 lw 6882 1829 m  8484 1829 l  ps
8788 1829 m  8471 1714 l  8471 1943 l  8788 1829 l  p ef
9874 2314 m  11326 3882 l  ps
11541 4114 m  11392 3791 l  11242 3953 l  11541 4114 l  p ef
0 lw 0.207 0.398 0.644 c 17047 4114 m  17407 4114 17682 4411 17682 4800 ct 
17682 5188 17407 5485 17047 5485 ct 16687 5485 16411 5188 16411 4800 ct 16411 4411 16687 4114 17047 4114 ct 
pc
16411 4114 m  16411 4114 l  pc
17683 5486 m  17683 5486 l  pc
pum
16922 4962 t
0.003 0.003 0.003 c 125 -244 m  125 0 l  168 0 l  168 -342 l  140 -342 l  125 -289 115 -282 49 -274 ct 
49 -244 l  125 -244 l  p ef
pom
1 lw 14929 4800 m  16108 4800 l  ps
16412 4800 m  16094 4686 l  16094 4914 l  16412 4800 l  p ef
0 lw 0.207 0.398 0.644 c 12811 6400 m  13171 6400 13447 6697 13447 7085 ct 
13447 7474 13171 7771 12811 7771 ct 12451 7771 12176 7474 12176 7085 ct 12176 6697 12451 6400 12811 6400 ct 
pc
12176 6400 m  12176 6400 l  pc
13448 7772 m  13448 7772 l  pc
pum
12687 7248 t
0.003 0.003 0.003 c 26 -78 m  34 -22 71 11 123 11 ct 160 11 195 -7 214 -38 ct 236 -71 246 -113 246 -175 ct 
246 -233 237 -269 217 -300 ct 198 -327 168 -342 130 -342 ct 65 -342 18 -294 18 -227 ct 
18 -163 62 -118 124 -118 ct 156 -118 180 -130 202 -156 ct 201 -73 174 -27 126 -27 ct 
96 -27 75 -45 68 -78 ct 26 -78 l  p
130 -305 m  170 -305 199 -272 199 -228 ct 199 -186 170 -156 128 -156 ct 87 -156 62 -184 62 -230 ct 
62 -274 91 -305 130 -305 ct p ef
pom
1 lw 4129 5486 m  4129 6059 l  11646 7086 l  11873 7086 l  ps
12176 7086 m  11859 6971 l  11859 7200 l  12176 7086 l  p ef
13262 6600 m  14079 5718 l  ps
14294 5486 m  13994 5647 l  14145 5809 l  14294 5486 l  p ef
gr
gs
0 0 m 17999 0 l 17999 7999 l 0 7999 l 0 0 l eoclip newpath
gr
gr
0 8000 t 
pom
count op_count sub {pop} repeat countdictstack dict_count sub {end} repeat b4_inc_state restore
%%PageTrailer
%%Trailer
%%EOF
